Request-Type	RequestDescription	Endpoint
GET	LIST USERS	https://reqres.in/api/users?page=2
GET	SINGLE USER	https://reqres.in/api/users/2
GET	SINGLE USER NOT FOUND	https://reqres.in/api/users/23
GET	LIST <RESOURCE>	https://reqres.in/api/unknown
GET	SINGLE <RESOURCE>	https://reqres.in/api/unknown/2
GET	SINGLE <RESOURCE> NOT FOUND	https://reqres.in/api/unknown/23
POST	CREATE	https://reqres.in/api/users
PUT	UPDATE	https://reqres.in/api/users/2
PATCH	UPDATE	https://reqres.in/api/users/2
DELETE	DELETE	https://reqres.in/api/users/2
POST	REGISTER - SUCCESSFUL	https://reqres.in/api/register
POST	REGISTER - UNSUCCESSFUL	https://reqres.in/api/register
POST	LOGIN - SUCCESSFUL	https://reqres.in/api/login
POST	LOGIN - UNSUCCESSFUL	https://reqres.in/api/login
GET	DELAYED RESPONSE	https://reqres.in/api/users?delay=3

Result: Different request types and endpoints are present
Browser closed.
Execution Completed
Apr 07, 2025 2:11:57 PM org.openqa.selenium.devtools.CdpVersionFinder findNearestMatch
WARNING: Unable to find an exact match for CDP version 135, returning the closest version; found: 134; Please update to a Selenium version that supports CDP version 135
Current URL is: https://reqres.in/#support-heading
Page Title is: Reqres - A hosted REST-API ready to respond to your AJAX requests
Support page is loaded

Radio options:
One-time payment ($)
Monthly support ($5/month)

UPGRADE option is available
Actual Message: Ace. Pro features coming real soon. Stick your email in here to be notified and help build our pro tier.
Expected Message: Ace. Pro features coming real soon. Stick your email in here to be notified and help build our pro tier.
Correct upgrade message is displayed
Subscription link sent to email id
Browser closed.
Execution is completed
Apr 07, 2025 2:12:06 PM org.openqa.selenium.devtools.CdpVersionFinder findNearestMatch
WARNING: Unable to find an exact match for CDP version 135, returning the closest version; found: 134; Please update to a Selenium version that supports CDP version 135
GET LIST USERS
Request: https://reqres.in/api/users?page=2
Response code: 200
Response Body(JSON): {
    "page": 2,
    "per_page": 6,
    "total": 12,
    "total_pages": 2,
    "data": [
        {
            "id": 7,
            "email": "michael.lawson@reqres.in",
            "first_name": "Michael",
            "last_name": "Lawson",
            "avatar": "https://reqres.in/img/faces/7-image.jpg"
        },
        {
            "id": 8,
            "email": "lindsay.ferguson@reqres.in",
            "first_name": "Lindsay",
            "last_name": "Ferguson",
            "avatar": "https://reqres.in/img/faces/8-image.jpg"
        },
        {
            "id": 9,
            "email": "tobias.funke@reqres.in",
            "first_name": "Tobias",
            "last_name": "Funke",
            "avatar": "https://reqres.in/img/faces/9-image.jpg"
        },
        {
            "id": 10,
            "email": "byron.fields@reqres.in",
            "first_name": "Byron",
            "last_name": "Fields",
            "avatar": "https://reqres.in/img/faces/10-image.jpg"
        },
        {
            "id": 11,
            "email": "george.edwards@reqres.in",
            "first_name": "George",
            "last_name": "Edwards",
            "avatar": "https://reqres.in/img/faces/11-image.jpg"
        },
        {
            "id": 12,
            "email": "rachel.howell@reqres.in",
            "first_name": "Rachel",
            "last_name": "Howell",
            "avatar": "https://reqres.in/img/faces/12-image.jpg"
        }
    ],
    "support": {
        "url": "https://contentcaddy.io?utm_source=reqres&utm_medium=json&utm_campaign=referral",
        "text": "Tired of writing endless social media content? Let Content Caddy generate it for you."
    }
}

GET SINGLE USER
Request: https://reqres.in/api/users/2
Response code: 200
Response Body(JSON): {
    "data": {
        "id": 2,
        "email": "janet.weaver@reqres.in",
        "first_name": "Janet",
        "last_name": "Weaver",
        "avatar": "https://reqres.in/img/faces/2-image.jpg"
    },
    "support": {
        "url": "https://contentcaddy.io?utm_source=reqres&utm_medium=json&utm_campaign=referral",
        "text": "Tired of writing endless social media content? Let Content Caddy generate it for you."
    }
}

GET SINGLE USER NOT FOUND
Request: https://reqres.in/api/users/23
Response code: 404
Response Body(JSON): {}

GET LIST <RESOURCE>
Request: https://reqres.in/api/unknown
Response code: 200
Response Body(JSON): {
    "page": 1,
    "per_page": 6,
    "total": 12,
    "total_pages": 2,
    "data": [
        {
            "id": 1,
            "name": "cerulean",
            "year": 2000,
            "color": "#98B2D1",
            "pantone_value": "15-4020"
        },
        {
            "id": 2,
            "name": "fuchsia rose",
            "year": 2001,
            "color": "#C74375",
            "pantone_value": "17-2031"
        },
        {
            "id": 3,
            "name": "true red",
            "year": 2002,
            "color": "#BF1932",
            "pantone_value": "19-1664"
        },
        {
            "id": 4,
            "name": "aqua sky",
            "year": 2003,
            "color": "#7BC4C4",
            "pantone_value": "14-4811"
        },
        {
            "id": 5,
            "name": "tigerlily",
            "year": 2004,
            "color": "#E2583E",
            "pantone_value": "17-1456"
        },
        {
            "id": 6,
            "name": "blue turquoise",
            "year": 2005,
            "color": "#53B0AE",
            "pantone_value": "15-5217"
        }
    ],
    "support": {
        "url": "https://contentcaddy.io?utm_source=reqres&utm_medium=json&utm_campaign=referral",
        "text": "Tired of writing endless social media content? Let Content Caddy generate it for you."
    }
}

GET SINGLE <RESOURCE>
Request: https://reqres.in/api/unknown/2
Response code: 200
Response Body(JSON): {
    "data": {
        "id": 2,
        "name": "fuchsia rose",
        "year": 2001,
        "color": "#C74375",
        "pantone_value": "17-2031"
    },
    "support": {
        "url": "https://contentcaddy.io?utm_source=reqres&utm_medium=json&utm_campaign=referral",
        "text": "Tired of writing endless social media content? Let Content Caddy generate it for you."
    }
}

GET SINGLE <RESOURCE> NOT FOUND
Request: https://reqres.in/api/unknown/23
Response code: 404
Response Body(JSON): {}

POST CREATE
Request: https://reqres.in/api/users
Response code: 201
Response Body(JSON): {
    "name": "morpheus",
    "job": "leader",
    "id": "201",
    "createdAt": "2025-04-07T06:12:23.487Z"
}

PUT UPDATE
Request: https://reqres.in/api/users/2
Response code: 200
Response Body(JSON): {
    "name": "morpheus",
    "job": "zion resident",
    "updatedAt": "2025-04-07T06:12:25.731Z"
}

PATCH UPDATE
Request: https://reqres.in/api/users/2
Response code: 200
Response Body(JSON): {
    "name": "morpheus",
    "job": "zion resident",
    "updatedAt": "2025-04-07T06:12:28.000Z"
}

DELETE DELETE
Request: https://reqres.in/api/users/2
Response code: 204
Response Body(JSON): 

POST REGISTER - SUCCESSFUL
Request: https://reqres.in/api/register
Response code: 200
Response Body(JSON): {
    "id": 4,
    "token": "QpwL5tke4Pnpja7X4"
}

POST REGISTER - UNSUCCESSFUL
Request: https://reqres.in/api/register
Response code: 400
Response Body(JSON): {
    "error": "Missing password"
}

POST LOGIN - SUCCESSFUL
Request: https://reqres.in/api/login
Response code: 200
Response Body(JSON): {
    "token": "QpwL5tke4Pnpja7X4"
}

POST LOGIN - UNSUCCESSFUL
Request: https://reqres.in/api/login
Response code: 400
Response Body(JSON): {
    "error": "Missing password"
}

GET DELAYED RESPONSE
Request: https://reqres.in/api/users?delay=3
Response code: 200
Response Body(JSON): {
    "page": 1,
    "per_page": 6,
    "total": 12,
    "total_pages": 2,
    "data": [
        {
            "id": 1,
            "email": "george.bluth@reqres.in",
            "first_name": "George",
            "last_name": "Bluth",
            "avatar": "https://reqres.in/img/faces/1-image.jpg"
        },
        {
            "id": 2,
            "email": "janet.weaver@reqres.in",
            "first_name": "Janet",
            "last_name": "Weaver",
            "avatar": "https://reqres.in/img/faces/2-image.jpg"
        },
        {
            "id": 3,
            "email": "emma.wong@reqres.in",
            "first_name": "Emma",
            "last_name": "Wong",
            "avatar": "https://reqres.in/img/faces/3-image.jpg"
        },
        {
            "id": 4,
            "email": "eve.holt@reqres.in",
            "first_name": "Eve",
            "last_name": "Holt",
            "avatar": "https://reqres.in/img/faces/4-image.jpg"
        },
        {
            "id": 5,
            "email": "charles.morris@reqres.in",
            "first_name": "Charles",
            "last_name": "Morris",
            "avatar": "https://reqres.in/img/faces/5-image.jpg"
        },
        {
            "id": 6,
            "email": "tracey.ramos@reqres.in",
            "first_name": "Tracey",
            "last_name": "Ramos",
            "avatar": "https://reqres.in/img/faces/6-image.jpg"
        }
    ],
    "support": {
        "url": "https://contentcaddy.io?utm_source=reqres&utm_medium=json&utm_campaign=referral",
        "text": "Tired of writing endless social media content? Let Content Caddy generate it for you."
    }
}

Browser closed.
Execution Completed

===============================================
UI Testing
Total tests run: 5, Passes: 5, Failures: 0, Skips: 0
===============================================

